?#??.????????. 3,4,3
???#??#?.?#?? 6,2
??#???###. 1,2,4
#..?#????????? 1,2,7
.???????????##??? 2,1,7
.##??????? 3,1,1
?.#??????.?# 1,1,2,2
?###??#???#??? 4,3,1,1
?####?????#?##?# 13,1
.#?.???????. 1,1,1,2
?.????#??? 1,2,1
???#??.??###????##?# 3,10,1
??..????????##?#? 1,2,1,7
?..?????##?.??##?? 7,5
.???..???## 1,5
?????.??#???????.?? 2,5,4,2
.???????????? 1,1,1,6
?..?????????#?#?. 1,2,1,8
??#????.?????##?? 4,1,8
???#.?##?????#?.# 1,1,6,1,1
..??###??#?.#???#??? 7,1,6
????????#??. 3,3
??#??#????????????. 9,6
???????????.?? 6,4
????#?#?#???#? 5,7
.#?##????#.#???#? 1,7,1,4
?????#?.???#? 5,3
?##???#??#??.?..?. 10,1,1
?#????#?#????.#??# 7,1,1,1,1
#?#?.??????.???????? 1,1,1,3,1,4
?#??????#.???.?#?? 9,1,1
#????????. 4,2
??.??.#???.###? 1,1,1,1,4
?#???#????##??#?? 3,2,1,2,4
??#?#??????.??.?.??? 8,1,1
???????#??.. 1,4
.??.???#????.?????.? 5,2
??#??.?.###?#??. 1,2,1,5,1
?#??.??.??????? 4,1,1,2,2
.?#??..??? 1,1
?.??#.????.?# 1,1,2,1
.??##??.#? 2,1
?#???.?#????????# 1,2,4,1,2
.?###????? 5,1
..??.??#?????? 1,2,2
??#?#?.#?.??? 6,1,1,1
#?????????...#? 1,4,1,1
.???????##??.?..? 1,6,1
?.????.?????#?#??.?? 1,3,10
?#?#???#?????#? 3,7
#?????.?#???????? 5,3,1,3
.#?#??.?????#?#? 3,9
.#???????.? 1,1,4
???.?#?????###????? 2,9
?.##???#????#???? 6,2
??.?#?#?#??.?#?? 1,8,1,1
??????#??#??.?.#. 1,10,1,1
#???.#???#. 3,1,2
???????.#. 3,1,1
###????.?.????.?#?.# 5,1,3,1,1
.##?#???#?#????#??? 5,1,1,1,5
.??????????.. 2,2
?????????. 1,2,1
?.??#???.???.?. 1,5,1,1
???????.#.??.??#.#? 3,3,1,1,3,1
#?.??.#??. 2,1,3
???#?????????????. 6,7,1
?.??.?#??????#???? 2,3,5
???????.?????##???? 1,2,2,3,2
##????#?.??.???? 5,1,1,1
?.???.???? 2,2
.#?#???..# 1,3,1
??.?#???#????? 3,3
.##????.??#.?? 3,1,2
????.#??..???#?? 1,3,2,3
???.?????? 3,1
.?????##??# 2,7
??????????? 1,3,1
?.#??#?..##?. 1,2,2
??#??.??.?.#?..? 2,2,2
?????#?..#???##?? 4,7
??.???#.???. 1,1,1,1
??##??..???#???#. 5,1,3,1
?.?#.????#?#?????? 1,11
??#???..#???#???#? 1,1,1,1,3,1
?.?#?.?.#???#???## 2,1,8
##?.#??.?. 2,1,1
#.?##.?.?# 1,3,2
?.?##??????#?# 3,6
#???..??.?. 1,1,1
.?#.?.?.?.#? 1,1,1,1
?#??????.?? 7,1
#???#?#??# 3,3,1
#??????####???????? 1,10,2
????.??##????##..# 1,1,3,5,1
#.##??#?#????#? 1,7,4
????##??#?#?.?#. 7,4,2
??#??..#??##?. 1,3,5
??#.?????.? 3,1,1
????????..????#??#? 6,1,4,3
.????..????#???? 2,1,2,2
.??##??#?. 1,6
.#????.????#? 1,5
??#?###????#????.? 8,3
???.????..?.???.?. 3,1
..?????.?##?#?? 1,5
.?#??????.????#??. 7,5
?.?.???????#??###??. 1,5,4
????..????#??.? 1,3
?####???????.? 5,3
?????.#??.#? 1,3,1
?.??.?###????? 1,6
????..?#?#. 2,1,4
##?.?????????#?? 3,10
.?#??#?#??..?????? 2,1,3,2
?#?#?.?.???## 4,1,5
??..???????. 1,1
...????.??.????.?. 1,2,4
.#?????.???.??. 6,1,1,1
##?.?.??.? 2,1,1
??.#????#?# 1,1,5
????#.?.?##.??. 3,1,1,3,1
??..??##??????? 4,5
???.#?????? 1,5,1
??##..##..?????#??? 4,2,3,2,1
?##???.?#??#?????#? 3,1,4,2,2
???????.??? 6,1
#?#???????#?#?? 1,7,1,1
?????#???#?.??. 1,3,4
..?#??.??##?#. 4,4
?.????????#?#??.?#? 2,2,5,2
???.?.???????? 1,1,1,1
??..????.??????? 1,3,1,2
?#?.?##????.??#???.? 1,4,6
????.#????#?????.?? 1,1,2,5,1,1
..?#.#?#?.?##??###? 1,1,2,8
?#????????? 2,4
?????#???? 1,1,2
????.????... 1,1
?????????#????? 5,8
????..???.?..?#?. 1,1
.?????????.#?? 2,1,2,3
.??.??#?#????.?? 1,3,1,1,1
?.??.???#??###?#?#?? 1,11
?##????..??#????.?? 3,3
?.?#???#???#??? 1,6
??#?###??.???.? 6,1,1
?#?##?##?.##?..? 5,2,3,1
?????.?????. 3,2
??????????#???? 1,8,1
????.??#??. 1,5
?.##???.??##??##?# 1,2,1,4,2,1
??#???.??????#.#?? 1,1,1,5,1
????####..?..? 8,1
..?????????#?. 4,4
?#????????? 1,1,4
???????.????#??? 5,5
#??.?#.?????..#?#??? 1,1,1,2,1,4
##??#??#?.?????? 5,1,1,2
.????##????##### 5,7
?#.??#???#.??.? 2,7,1
.????????##?..?? 2,2,1
.??????#?????????.? 4,3,4,1,1
??????#??.#?.???.??? 7,1,1,2
?.#?#.?????##?#?#??? 1,1,1,1,1,7
???????####?##?###. 1,15
?????????#?.??#? 3,1,3,3
##?????#???#?#?? 3,1,2,4,1
.??.????.?#??#?#??# 2,1,2,4,1
???#?????????#??. 3,8
?.???#???#.????.???? 1,5,2,3,1,1
???.??????#?? 1,2,5
??#??#?#?????..?.??? 8,3,1,1,1
???###??????? 7,2
??????#..?..?.? 1,4,1,1,1
????#??????? 1,2,2
?????.?##?? 1,2
??#?##????.??##???? 7,3
?#???????.# 4,3,1
.?????#?#?#????#?#?? 10,3
.??#.???.? 2,1,1
???..????.?#???#?##? 2,4,10
??..??????.????.. 3,2
?#???##??..????? 6,2
???????##?? 1,2
???#????##??# 1,3,6
??.??#???????? 1,1,3,2
???..?.?????.? 2,3
.??.#??????..? 3,1
?#???#??????#.?# 1,2,5,1
??..#?#?.#?.#??????. 1,1,2,1,2,4
??##????#.. 2,1,1
??????????????.? 1,1,1,5
??#.??.??#?#?????. 1,1,6,2
.?.??..#??..? 2,3
.????.???? 1,1
#??..????##?.?#.# 2,7,1,1
??.??.#.?.#???????# 1,1,4,3
??#??#..?#????#???? 1,4,2,1,1,2
???#???????# 9,1
???#???#?#???#..##? 8,3,2
?.##?##???#????#?#? 1,10,1,1,1
?????#??#??##?.???? 6,1,4,1
..###.???#? 3,3
??.??.#?#?##?# 2,1,8
??.#????#????.???#? 1,1,3,1,1,1
??.?????#?#?????#?? 2,1,12
??#.????#??##???#??? 1,13,1
##??????.#??????? 6,7
??????##?#?#?#?.??#? 1,10,1,2
?.??#?#.??????#?# 1,3,1,2,4
????????##. 2,1,3
.?????.?#???#? 3,1,2
????.#?#.?? 2,3
??????#????##?????? 13,1,1
?.???????.?? 3,2
..?#?.#???? 2,1,1
??.?????.??#?#??##?? 1,3,11
?#????????#? 2,3,1
????#?.?.###?? 4,1,5
?.?#????????.?## 1,7,2
.??.??????.???.. 1,3,1,1,1
##.?#?#?#???? 2,7,1
?#?.????#...??? 2,5,1
.????.#.#?#?# 1,1,5
.?.##?#??? 1,2,3
##????#?????????#?#? 3,1,1,1,6
.?????????.?? 2,4,1
#????..?#?.?#.????#? 1,1,1,2,1,5
??#??#??..# 7,1
?###?.??..? 4,1,1
??.??????#?#?#??..? 1,8
???.?????? 2,4,1
??????#??#??? 1,2,1,1
??.?#??.?#???? 1,3,4
#??????????? 6,1,1
??#?.#?#.#??#???? 1,1,1,1,8
?..???#.???##??#?. 3,7
?...??????#?#?. 2,4
????.??.?. 4,1
#.??##??###?.?###. 1,1,8,4
????.?..?#.??????? 3,1,1,1,3
#.???.????#?.?.?.?# 1,2,1,3,1,2
????.?.#???.???# 2,1,4,1,1
???#??????????? 2,5
??#?#???.#????? 4,1,1,2
???#??.????.??? 5,1,2,1
.????????#.???#?? 1,7,6
?.??..??#?# 2,3
#?????.##??.?????#? 4,1,4,1,1